module gitlab.com/tozd/go/mediawiki

go 1.17

require (
	github.com/cosnicolaou/pbzip2 v1.0.2-0.20211229030036-3ed02fdb7541
	github.com/elliotchance/phpserialize v1.3.2
	github.com/foolin/pagser v0.1.5
	github.com/hashicorp/go-retryablehttp v0.7.1-0.20211018174820-ff6d014e72d9
	github.com/klauspost/pgzip v1.2.5
	github.com/pingcap/parser v0.0.0-20210802034743-dd9b189324ce
	gitlab.com/tozd/go/errors v0.3.0
	golang.org/x/text v0.3.6
)

require (
	github.com/Microsoft/go-winio v0.4.16 // indirect
	github.com/ProtonMail/go-crypto v0.0.0-20210428141323-04723f9f07d7 // indirect
	github.com/PuerkitoBio/goquery v1.5.1 // indirect
	github.com/acomagu/bufpipe v1.0.3 // indirect
	github.com/andybalholm/cascadia v1.1.0 // indirect
	github.com/davecgh/go-spew v1.1.1 // indirect
	github.com/emirpasic/gods v1.12.0 // indirect
	github.com/go-git/gcfg v1.5.0 // indirect
	github.com/go-git/go-billy/v5 v5.3.1 // indirect
	github.com/go-git/go-git/v5 v5.4.2 // indirect
	github.com/go-sql-driver/mysql v1.5.0 // indirect
	github.com/hashicorp/go-cleanhttp v0.5.1 // indirect
	github.com/imdario/mergo v0.3.12 // indirect
	github.com/jbenet/go-context v0.0.0-20150711004518-d14ea06fba99 // indirect
	github.com/kevinburke/ssh_config v0.0.0-20201106050909-4977a11b4351 // indirect
	github.com/klauspost/compress v1.13.6 // indirect
	github.com/mitchellh/go-homedir v1.1.0 // indirect
	github.com/pingcap/check v0.0.0-20200212061837-5e12011dc712 // indirect
	github.com/pingcap/errors v0.11.5-0.20210425183316-da1aaba5fb63 // indirect
	github.com/pingcap/log v0.0.0-20210625125904-98ed8e2eb1c7 // indirect
	github.com/pmezard/go-difflib v1.0.0 // indirect
	github.com/sergi/go-diff v1.1.0 // indirect
	github.com/spf13/cast v1.3.1 // indirect
	github.com/whilp/git-urls v1.0.0 // indirect
	github.com/xanzy/ssh-agent v0.3.0 // indirect
	go.uber.org/atomic v1.8.0 // indirect
	go.uber.org/multierr v1.7.0 // indirect
	go.uber.org/zap v1.18.1 // indirect
	golang.org/x/crypto v0.0.0-20210421170649-83a5a9bb288b // indirect
	golang.org/x/lint v0.0.0-20210508222113-6edffad5e616 // indirect
	golang.org/x/net v0.0.0-20210405180319-a5a99cb37ef4 // indirect
	golang.org/x/sys v0.0.0-20210510120138-977fb7262007 // indirect
	golang.org/x/tools v0.1.4 // indirect
	gopkg.in/natefinch/lumberjack.v2 v2.0.0 // indirect
	gopkg.in/warnings.v0 v0.1.2 // indirect
	gopkg.in/yaml.v2 v2.4.0 // indirect
	gopkg.in/yaml.v3 v3.0.0-20210107192922-496545a6307b // indirect
)

require (
	github.com/pkg/errors v0.9.1 // indirect
	github.com/stretchr/testify v1.7.0
	gitlab.com/tozd/go/x v0.0.0-20220203140942-e215f78d9e8a
)
